VecAXPY mean 4.52767e-05 variance 1.99323e-12 samples 100
VecDot mean 6.18912e-05 variance 3.38841e-12 samples 100
VecCopy mean 4.20444e-05 variance 5.66864e-13 samples 100
VecSet mean 3.06005e-05 variance 1.44158e-12 samples 100
Test completed successfully!
************************************************************************************************************************
***             WIDEN YOUR WINDOW TO 120 CHARACTERS.  Use 'enscript -r -fCourier9' to print this document            ***
************************************************************************************************************************

---------------------------------------------- PETSc Performance Summary: ----------------------------------------------

./perfbatch on a mesh_cuda named h09n06 with 1 processor, by oanam Sat Jun 26 17:11:35 2021
Using Petsc Development GIT revision: v3.14.3-572-gce3dbf6219  GIT Date: 2021-01-27 21:07:14 -0600

                         Max       Max/Min     Avg       Total
Time (sec):           3.438e+01     1.000   3.438e+01
Objects:              5.000e+00     1.000   5.000e+00
Flop:                 4.370e+08     1.000   4.370e+08  4.370e+08
Flop/sec:             1.271e+07     1.000   1.271e+07  1.271e+07
MPI Messages:         0.000e+00     0.000   0.000e+00  0.000e+00
MPI Message Lengths:  0.000e+00     0.000   0.000e+00  0.000e+00
MPI Reductions:       0.000e+00     0.000

Flop counting convention: 1 flop = 1 real number operation of type (multiply/divide/add/subtract)
                            e.g., VecAXPY() for real vectors of length N --> 2N flop
                            and VecAXPY() for complex vectors of length N --> 8N flop

Summary of Stages:   ----- Time ------  ----- Flop ------  --- Messages ---  -- Message Lengths --  -- Reductions --
                        Avg     %Total     Avg     %Total    Count   %Total     Avg         %Total    Count   %Total
 0:      Main Stage: 3.4378e+01 100.0%  4.1300e+08  94.5%  0.000e+00   0.0%  0.000e+00        0.0%  0.000e+00   0.0%
 1:     Work on GPU: 5.4402e-04   0.0%  2.4000e+07   5.5%  0.000e+00   0.0%  0.000e+00        0.0%  0.000e+00   0.0%

------------------------------------------------------------------------------------------------------------------------
See the 'Profiling' chapter of the users' manual for details on interpreting output.
Phase summary info:
   Count: number of times phase was executed
   Time and Flop: Max - maximum over all processors
                  Ratio - ratio of maximum to minimum over all processors
   Mess: number of messages sent
   AvgLen: average message length (bytes)
   Reduct: number of global reductions
   Global: entire computation
   Stage: stages of a computation. Set stages with PetscLogStagePush() and PetscLogStagePop().
      %T - percent time in this phase         %F - percent flop in this phase
      %M - percent messages in this phase     %L - percent message lengths in this phase
      %R - percent reductions in this phase
   Total Mflop/s: 10e-6 * (sum of flop over all processors)/(max time over all processors)
   GPU Mflop/s: 10e-6 * (sum of flop on GPU over all processors)/(max GPU time over all processors)
   CpuToGpu Count: total number of CPU to GPU copies per processor
   CpuToGpu Size (Mbytes): 10e-6 * (total size of CPU to GPU copies per processor)
   GpuToCpu Count: total number of GPU to CPU copies per processor
   GpuToCpu Size (Mbytes): 10e-6 * (total size of GPU to CPU copies per processor)
   GPU %F: percent flops on GPU in this event
------------------------------------------------------------------------------------------------------------------------
Event                Count      Time (sec)     Flop                              --- Global ---  --- Stage ----  Total   GPU    - CpuToGpu -   - GpuToCpu - GPU
                   Max Ratio  Max     Ratio   Max  Ratio  Mess   AvgLen  Reduct  %T %F %M %L %R  %T %F %M %L %R Mflop/s Mflop/s Count   Size   Count   Size  %F
---------------------------------------------------------------------------------------------------------------------------------------------------------------

--- Event Stage 0: Main Stage

PetscBarrier         805  1.0 1.2496e-04  1.0 0.00e+00  0.0 0.0e+00 0.0e+00 0.0e+00   0   0   0   0   0   0   0   0   0   0     0       0      0 0.00e+00    0 0.00e+00  0
VecDot               100  1.0 6.1152e-03  1.0 2.00e+08  1.0 0.0e+00 0.0e+00 0.0e+00   0  46   0   0   0   0  48   0   0   0 32706   33489      0 0.00e+00  100 8.00e-04 100
VecNorm                4  1.0 2.5346e-03  1.0 1.30e+07  1.0 0.0e+00 0.0e+00 0.0e+00   0   3   0   0   0   0   3   0   0   0  5129   34392      3 9.60e+01    4 3.20e-05 100
VecCopy              100  1.0 4.1326e-03  1.0 0.00e+00  0.0 0.0e+00 0.0e+00 0.0e+00   0   0   0   0   0   0   0   0   0   0     0       0      0 0.00e+00    0 0.00e+00  0
VecSet               103  1.0 3.2610e-03  1.0 0.00e+00  0.0 0.0e+00 0.0e+00 0.0e+00   0   0   0   0   0   0   0   0   0   0     0       0      0 0.00e+00    0 0.00e+00  0
VecAXPY              100  1.0 4.4589e-03  1.0 2.00e+08  1.0 0.0e+00 0.0e+00 0.0e+00   0  46   0   0   0   0  48   0   0   0 44854   45454    100 8.00e-04    0 0.00e+00 100
VecSetRandom           3  1.0 1.0536e+00  1.0 0.00e+00  0.0 0.0e+00 0.0e+00 0.0e+00   3   0   0   0   0   3   0   0   0   0     0       0      0 0.00e+00    0 0.00e+00  0
VecCUDACopyTo          3  1.0 2.1317e-03  1.0 0.00e+00  0.0 0.0e+00 0.0e+00 0.0e+00   0   0   0   0   0   0   0   0   0   0     0       0      3 9.60e+01    0 0.00e+00  0

--- Event Stage 1: Work on GPU

PetscBarrier           4  1.0 7.9500e-07  1.0 0.00e+00  0.0 0.0e+00 0.0e+00 0.0e+00   0   0   0   0   0   0   0   0   0   0     0       0      0 0.00e+00    0 0.00e+00  0
VecDot                 1  1.0 6.3064e-05  1.0 2.00e+06  1.0 0.0e+00 0.0e+00 0.0e+00   0   0   0   0   0  12   8   0   0   0 31714   32601      0 0.00e+00    1 8.00e-06 100
VecNorm                2  1.0 3.5039e-04  1.0 2.00e+07  1.0 0.0e+00 0.0e+00 0.0e+00   0   5   0   0   0  64  83   0   0   0 57080   60930      0 0.00e+00    2 1.60e-05 100
VecCopy                1  1.0 4.6524e-05  1.0 0.00e+00  0.0 0.0e+00 0.0e+00 0.0e+00   0   0   0   0   0   9   0   0   0   0     0       0      0 0.00e+00    0 0.00e+00  0
VecSet                 1  1.0 3.0721e-05  1.0 0.00e+00  0.0 0.0e+00 0.0e+00 0.0e+00   0   0   0   0   0   6   0   0   0   0     0       0      0 0.00e+00    0 0.00e+00  0
VecAXPY                1  1.0 4.5505e-05  1.0 2.00e+06  1.0 0.0e+00 0.0e+00 0.0e+00   0   0   0   0   0   8   8   0   0   0 43951   44753      1 8.00e-06    0 0.00e+00 100
---------------------------------------------------------------------------------------------------------------------------------------------------------------

Memory usage is given in bytes:

Object Type          Creations   Destructions     Memory  Descendants' Mem.
Reports information only for process 0.

--- Event Stage 0: Main Stage

         PetscRandom     1              1          694     0.
              Vector     3              3     96005712     0.
              Viewer     1              0            0     0.

--- Event Stage 1: Work on GPU

========================================================================================================================
Average time to get PetscTime(): 4.12e-08
#PETSc Option Table entries:
-log_view
-n 1000000
-vec_type mpicuda
#End of PETSc Option Table entries
Compiled without FORTRAN kernels
Compiled with 64 bit PetscInt
Compiled with full precision matrices (default)
sizeof(short) 2 sizeof(int) 4 sizeof(long) 8 sizeof(void*) 8 sizeof(PetscScalar) 8 sizeof(PetscInt) 8
Configure options: PETSC_ARCH=mesh_cuda --COPTFLAGS=-g -Ofast -mcpu=power9 -fPIC --CUDAPPFLAGS=-Wno-deprecated-gpu-targets -std=c++14 --CXXOPTFLAGS=-g -Ofast -mcpu=power9 -fPIC --FOPTFLAGS=-g -Ofast -mcpu=power9 -fPIC--download-ctetgen --download-exodusii --download-fblaslapack --download-make --download-med --download-metis --download-parmetis --download-triangle --download-viennacl --with-64-bit-indices=1 --with-cc=mpicc --with-cmake --with-cuda --with-cudac=nvcc --with-cxx=mpiCC --with-debugging=no --with-fc=mpifort --with-hdf5 --with-mpiexec=jsrun --with-netcdf --with-netcdf-dir=/autofs/nccs-svm1_sw/summit/.swci/0-core/opt/spack/20180914/linux-rhel7-ppc64le/gcc-4.8.5/netcdf-4.6.2-ouocjbxiwypuk3lbyrwog7n572kpko7c --with-pnetcdf --with-pnetcdf-dir=/autofs/nccs-svm1_sw/summit/.swci/1-compute/opt/spack/20180914/linux-rhel7-ppc64le/gcc-8.1.1/parallel-netcdf-1.8.1-e7cshl37pm76e2ivwbmrdapblvtwcfsd --with-shared-libraries=1 --with-zlib
-----------------------------------------
Libraries compiled on 2021-01-28 22:43:06 on login5 
Machine characteristics: Linux-4.14.0-115.21.2.el7a.ppc64le-ppc64le-with-redhat-7.6-Maipo
Using PETSc directory: /autofs/nccs-svm1_home1/oanam/petsc01_21
Using PETSc arch: mesh_cuda
-----------------------------------------

Using C compiler: mpicc  -Wall -Wwrite-strings -Wno-strict-aliasing -Wno-unknown-pragmas -fstack-protector -fvisibility=hidden -g   
Using Fortran compiler: mpifort  -Wall -ffree-line-length-0 -Wno-unused-dummy-argument -g     
-----------------------------------------

Using include paths: -I/autofs/nccs-svm1_home1/oanam/petsc01_21/include -I/autofs/nccs-svm1_home1/oanam/petsc01_21/mesh_cuda/include -I/autofs/nccs-svm1_sw/summit/.swci/0-core/opt/spack/20180914/linux-rhel7-ppc64le/gcc-4.8.5/netcdf-4.6.2-ouocjbxiwypuk3lbyrwog7n572kpko7c/include -I/autofs/nccs-svm1_sw/summit/.swci/1-compute/opt/spack/20180914/linux-rhel7-ppc64le/gcc-8.1.1/parallel-netcdf-1.8.1-e7cshl37pm76e2ivwbmrdapblvtwcfsd/include -I/sw/summit/cuda/10.1.243/include
-----------------------------------------

Using C linker: mpicc
Using Fortran linker: mpifort
Using libraries: -Wl,-rpath,/autofs/nccs-svm1_home1/oanam/petsc01_21/mesh_cuda/lib -L/autofs/nccs-svm1_home1/oanam/petsc01_21/mesh_cuda/lib -lpetsc -Wl,-rpath,/autofs/nccs-svm1_home1/oanam/petsc01_21/mesh_cuda/lib -L/autofs/nccs-svm1_home1/oanam/petsc01_21/mesh_cuda/lib -Wl,-rpath,/autofs/nccs-svm1_sw/summit/.swci/0-core/opt/spack/20180914/linux-rhel7-ppc64le/gcc-4.8.5/netcdf-4.6.2-ouocjbxiwypuk3lbyrwog7n572kpko7c/lib -L/autofs/nccs-svm1_sw/summit/.swci/0-core/opt/spack/20180914/linux-rhel7-ppc64le/gcc-4.8.5/netcdf-4.6.2-ouocjbxiwypuk3lbyrwog7n572kpko7c/lib -Wl,-rpath,/autofs/nccs-svm1_sw/summit/.swci/1-compute/opt/spack/20180914/linux-rhel7-ppc64le/gcc-8.1.1/parallel-netcdf-1.8.1-e7cshl37pm76e2ivwbmrdapblvtwcfsd/lib -L/autofs/nccs-svm1_sw/summit/.swci/1-compute/opt/spack/20180914/linux-rhel7-ppc64le/gcc-8.1.1/parallel-netcdf-1.8.1-e7cshl37pm76e2ivwbmrdapblvtwcfsd/lib -Wl,-rpath,/sw/summit/cuda/10.1.243/lib64 -L/sw/summit/cuda/10.1.243/lib64 -Wl,-rpath,/autofs/nccs-svm1_sw/summit/.swci/1-compute/opt/spack/20180914/linux-rhel7-ppc64le/gcc-7.4.0/spectrum-mpi-10.3.1.2-20200121-eu2wh5ypz6ipvokwbng2m5ihug6doysh/lib -L/autofs/nccs-svm1_sw/summit/.swci/1-compute/opt/spack/20180914/linux-rhel7-ppc64le/gcc-7.4.0/spectrum-mpi-10.3.1.2-20200121-eu2wh5ypz6ipvokwbng2m5ihug6doysh/lib -Wl,-rpath,/autofs/nccs-svm1_sw/summit/gcc/7.4.0/lib/gcc/powerpc64le-none-linux-gnu/7.4.0 -L/autofs/nccs-svm1_sw/summit/gcc/7.4.0/lib/gcc/powerpc64le-none-linux-gnu/7.4.0 -Wl,-rpath,/autofs/nccs-svm1_sw/summit/gcc/7.4.0/lib/gcc -L/autofs/nccs-svm1_sw/summit/gcc/7.4.0/lib/gcc -Wl,-rpath,/autofs/nccs-svm1_sw/summit/gcc/7.4.0/lib64 -L/autofs/nccs-svm1_sw/summit/gcc/7.4.0/lib64 -Wl,-rpath,/autofs/nccs-svm1_sw/summit/.swci/1-compute/opt/spack/20180914/linux-rhel7-ppc64le/gcc-7.4.0/parallel-netcdf-1.8.1-j2a6npislk6xgpexfkuu5zz5h5jikkjf/lib -L/autofs/nccs-svm1_sw/summit/.swci/1-compute/opt/spack/20180914/linux-rhel7-ppc64le/gcc-7.4.0/parallel-netcdf-1.8.1-j2a6npislk6xgpexfkuu5zz5h5jikkjf/lib -Wl,-rpath,/autofs/nccs-svm1_sw/summit/.swci/1-compute/opt/spack/20180914/linux-rhel7-ppc64le/gcc-7.4.0/hdf5-1.10.4-ak37esaqunyb3s77xh3vbhpfjou5y3pz/lib -L/autofs/nccs-svm1_sw/summit/.swci/1-compute/opt/spack/20180914/linux-rhel7-ppc64le/gcc-7.4.0/hdf5-1.10.4-ak37esaqunyb3s77xh3vbhpfjou5y3pz/lib -Wl,-rpath,/autofs/nccs-svm1_sw/summit/.swci/1-compute/opt/spack/20180914/linux-rhel7-ppc64le/gcc-7.4.0/zlib-1.2.11-tdykbkiueylpgx2rshpms3k3ncw5g3f6/lib -L/autofs/nccs-svm1_sw/summit/.swci/1-compute/opt/spack/20180914/linux-rhel7-ppc64le/gcc-7.4.0/zlib-1.2.11-tdykbkiueylpgx2rshpms3k3ncw5g3f6/lib -Wl,-rpath,/autofs/nccs-svm1_sw/summit/.swci/1-compute/opt/spack/20180914/linux-rhel7-ppc64le/gcc-7.4.0/pkgconf-1.5.4-mtkkgdyykt4qmmw5pckpn5o62tybfpsc/lib -L/autofs/nccs-svm1_sw/summit/.swci/1-compute/opt/spack/20180914/linux-rhel7-ppc64le/gcc-7.4.0/pkgconf-1.5.4-mtkkgdyykt4qmmw5pckpn5o62tybfpsc/lib -Wl,-rpath,/autofs/nccs-svm1_sw/summit/.swci/0-core/opt/spack/20180914/linux-rhel7-ppc64le/gcc-4.8.5/python-3.7.0-ei3mpdncii74xsn55t5kxpuc46i3oezn/lib -L/autofs/nccs-svm1_sw/summit/.swci/0-core/opt/spack/20180914/linux-rhel7-ppc64le/gcc-4.8.5/python-3.7.0-ei3mpdncii74xsn55t5kxpuc46i3oezn/lib -Wl,-rpath,/autofs/nccs-svm1_sw/summit/.swci/0-core/opt/spack/20180914/linux-rhel7-ppc64le/gcc-4.8.5/gdb-8.2-wqepjcgazxilipyw7oqoee24dnczbeac/lib -L/autofs/nccs-svm1_sw/summit/.swci/0-core/opt/spack/20180914/linux-rhel7-ppc64le/gcc-4.8.5/gdb-8.2-wqepjcgazxilipyw7oqoee24dnczbeac/lib -Wl,-rpath,/autofs/nccs-svm1_sw/summit/.swci/0-core/opt/spack/20180914/linux-rhel7-ppc64le/gcc-4.8.5/valgrind-3.14.0-6tdksrkyyvtn77cypt4g5jp7m5tr4eaq/lib -L/autofs/nccs-svm1_sw/summit/.swci/0-core/opt/spack/20180914/linux-rhel7-ppc64le/gcc-4.8.5/valgrind-3.14.0-6tdksrkyyvtn77cypt4g5jp7m5tr4eaq/lib -Wl,-rpath,/autofs/nccs-svm1_sw/summit/.swci/0-core/opt/spack/20180914/linux-rhel7-ppc64le/gcc-4.8.5/glib-2.56.3-noqgr3eu2ah3dmxr6lhwbmvnusfliwgi/lib -L/autofs/nccs-svm1_sw/summit/.swci/0-core/opt/spack/20180914/linux-rhel7-ppc64le/gcc-4.8.5/glib-2.56.3-noqgr3eu2ah3dmxr6lhwbmvnusfliwgi/lib -Wl,-rpath,/autofs/nccs-svm1_sw/summit/.swci/1-compute/opt/spack/20180914/linux-rhel7-ppc64le/gcc-4.8.5/darshan-runtime-3.1.7-cnvxicgf5j4ap64qi6v5gxp67hmrjz43/lib -L/autofs/nccs-svm1_sw/summit/.swci/1-compute/opt/spack/20180914/linux-rhel7-ppc64le/gcc-4.8.5/darshan-runtime-3.1.7-cnvxicgf5j4ap64qi6v5gxp67hmrjz43/lib -Wl,-rpath,/autofs/nccs-svm1_sw/summit/gcc/7.4.0/lib -L/autofs/nccs-svm1_sw/summit/gcc/7.4.0/lib -lflapack -lfblas -lexodus -lnetcdf -lpnetcdf -lmedC -lmed -lhdf5hl_fortran -lhdf5_fortran -lhdf5_hl -lhdf5 -lparmetis -lmetis -ltriangle -lm -lz -lcufft -lcublas -lcudart -lcusparse -lcusolver -lX11 -lstdc++ -ldl -lmpiprofilesupport -lmpi_ibm_usempi -lmpi_ibm_mpifh -lmpi_ibm -lgfortran -lm -lgfortran -lm -lgcc_s -lpthread -lstdc++ -ldl
-----------------------------------------

The RS settings are  -n 1 -r 1 -a 1 -c 1 -g 6 -b packed:1  -d packed -l GPU-CPU





---------- MPI Ranks: 1, OpenMP Threads: 1, GPUs per Resource Set: 6 ----------
MPI Rank 000, OMP_thread 00 on HWThread 002 of Node h09n06 - RT_GPU_id 0 1 2 3 4 5 : GPU_id 0 1 2 3 4 5 
https://jobstepviewer.olcf.ornl.gov/summit/1114192-101
