VecAXPY mean 0.000112412 variance 4.73036e-12 samples 100
VecDot mean 0.000106132 variance 8.14492e-12 samples 100
VecCopy mean 9.05943e-05 variance 4.78349e-13 samples 100
VecSet mean 5.25371e-05 variance 1.07036e-12 samples 100
