VecAXPY mean 1.64523e-05 variance 4.58121e-12 samples 100
VecDot mean 3.78995e-05 variance 4.67206e-12 samples 100
VecCopy mean 1.84416e-05 variance 1.57908e-12 samples 100
VecSet mean 2.2291e-05 variance 1.0537e-12 samples 100
