VecAXPY mean 2.04472e-05 variance 2.46945e-10 samples 100
VecDot mean 5.03311e-05 variance 1.35804e-09 samples 100
VecCopy mean 2.06618e-05 variance 1.08512e-11 samples 100
VecSet mean 2.61762e-05 variance 1.00165e-11 samples 100
