VecAXPY mean 1.66071e-05 variance 5.49498e-12 samples 100
VecDot mean 3.82133e-05 variance 2.64033e-11 samples 100
VecCopy mean 1.82514e-05 variance 5.10478e-12 samples 100
VecSet mean 2.25641e-05 variance 4.95096e-12 samples 100
