VecAXPY mean 1.94754e-05 variance 7.72122e-12 samples 100
VecDot mean 4.17496e-05 variance 1.55372e-11 samples 100
VecCopy mean 2.33266e-05 variance 2.42759e-12 samples 100
VecSet mean 2.49349e-05 variance 2.05622e-12 samples 100
