VecAXPY mean 0.000728501 variance 8.36926e-12 samples 100
VecDot mean 0.000498954 variance 9.6153e-12 samples 100
VecCopy mean 0.000531301 variance 1.02125e-12 samples 100
VecSet mean 0.0002463 variance 2.35077e-12 samples 100
