VecAXPY mean 0.000114754 variance 1.68334e-11 samples 100
VecDot mean 0.000109144 variance 2.81938e-11 samples 100
VecCopy mean 9.24965e-05 variance 5.86371e-12 samples 100
VecSet mean 5.50951e-05 variance 5.17617e-12 samples 100
