VecAXPY mean 0.00143637 variance 6.18078e-12 samples 100
VecDot mean 0.000943602 variance 1.97752e-11 samples 100
VecCopy mean 0.00103839 variance 2.95654e-12 samples 100
VecSet mean 0.000469587 variance 2.26122e-12 samples 100
