VecAXPY mean 0.000160753 variance 2.72881e-12 samples 100
VecDot mean 0.000138278 variance 8.1425e-12 samples 100
VecCopy mean 0.000125202 variance 1.2024e-12 samples 100
VecSet mean 6.80631e-05 variance 1.52899e-12 samples 100
