VecAXPY mean 0.00143709 variance 6.89076e-12 samples 100
VecDot mean 0.000940517 variance 1.53189e-11 samples 100
VecCopy mean 0.00103812 variance 1.08305e-12 samples 100
VecSet mean 0.00046823 variance 1.39533e-12 samples 100
