VecAXPY mean 0.000300314 variance 2.16132e-12 samples 100
VecDot mean 0.000221191 variance 8.09638e-12 samples 100
VecCopy mean 0.000224346 variance 4.98993e-13 samples 100
VecSet mean 0.000111006 variance 9.81296e-13 samples 100
