VecAXPY mean 1.85878e-05 variance 5.35571e-12 samples 100
VecDot mean 4.31282e-05 variance 2.85058e-11 samples 100
VecCopy mean 2.00863e-05 variance 5.04384e-12 samples 100
VecSet mean 2.38955e-05 variance 5.75611e-12 samples 100
