VecAXPY mean 0.00097009 variance 4.55001e-09 samples 100
VecDot mean 0.000643775 variance 1.38134e-11 samples 100
VecCopy mean 0.000699199 variance 1.25079e-12 samples 100
VecSet mean 0.000319597 variance 1.18031e-12 samples 100
