VecAXPY mean 0.000733684 variance 1.02303e-11 samples 100
VecDot mean 0.000506648 variance 2.32349e-11 samples 100
VecCopy mean 0.000536589 variance 3.80565e-12 samples 100
VecSet mean 0.000253231 variance 3.55693e-12 samples 100
