VecAXPY mean 3.32157e-05 variance 2.11487e-10 samples 100
VecDot mean 8.2272e-05 variance 2.68538e-10 samples 100
VecCopy mean 4.43018e-05 variance 4.11354e-10 samples 100
VecSet mean 4.18233e-05 variance 1.48225e-12 samples 100
